{
    "students": [
        {
            "name": "student_1",
            "partOne": 5,
            "partTwo": 5,
            "partThree": 5,
            "partFour": 5,
            "total": 20,
            "hasPassed": true
        }
    ]
}